…
::: {.cell-output .cell-output-stdout}

```
$bigrams
# A tibble: 208 x 2
   feature          frequency
   <chr>                <int>
 1 public plan             18
 2 mental health           13
 3 publicly funded         13
 4 public option           12
 5 wait times              12
 6 primary care            11
 7 health insurance         9
 8 emergency care           8
 9 feel free                8
10 funded health            8
# i 198 more rows

$trigrams
# A tibble: 59 x 2
   feature                       frequency
   <chr>                             <int>
 1 "funded health insurance"             8
 2 "publicly funded health"              8
 3 "targeted safety net"                 6
 4 "audits public reporting"             4
 5 "progressive income taxes"            4
 6 "care emergency care"                 3
 7 "care specialist care"                3
 8 "don\u2019t trust washington"         3
 9 "drug price negotiation"              3
10 "independent audits public"           3
# i 49 more rows
…
::: {.cell-output .cell-output-stdout}

```
$lda_model
A LDA_VEM topic model with 5 topics.

$top_terms
# A tibble: 40 x 3
   topic term           beta
   <int> <chr>         <dbl>
 1     1 "i\u2019d"   0.0257
 2     1 "care"       0.0245
 3     1 "plan"       0.0219
 4     1 "people"     0.0193
 5     1 "public"     0.0167
 6     1 "coverage"   0.0116
 7     1 "don\u2019t" 0.0116
 8     1 "health"     0.0103
 9     2 "coverage"   0.0144
10     2 "access"     0.0128
# i 30 more rows

$document_topics
# A tibble: 50 x 3
   document topic     gamma
   <chr>    <int>     <dbl>
 1 P5           1 1.000    
 2 P3           1 0.0000412
 3 P4           1 0.0000452
 4 P6           1 0.0000502
 5 P7           1 0.0000543
 6 MOD          1 0.0000178
 7 P8           1 0.0000425
 8 P1           1 0.0000840
 9 System       1 0.0000743
10 P2           1 0.000188 
# i 40 more rows
…
