…
print(topic_res)
```

::: {.cell-output .cell-output-stdout}

```
$lda_model
A LDA_VEM topic model with 5 topics.

$top_terms
# A tibble: 50 x 3
   topic term        beta
   <int> <chr>      <dbl>
 1     1 trade     0.0437
 2     1 policy    0.0285
 3     1 concrete  0.0272
 4     1 voters    0.0223
 5     1 specifics 0.0223
 6     1 private   0.0222
 7     1 health    0.0197
 8     1 offs      0.0185
 9     1 key       0.0176
10     1 care      0.0140
# i 40 more rows

$document_topics
# A tibble: 45 x 3
   document topic    gamma
   <chr>    <int>    <dbl>
 1 MOD          1 0.456   
 2 P1           1 0.000628
 3 P2           1 0.000492
 4 P6           1 0.000268
 5 P7           1 0.00112 
 6 P8           1 0.00112 
 7 P3           1 0.000575
 8 P4           1 0.00112 
 9 P5           1 0.000730
10 MOD          2 0.543   
# i 35 more rows
…
